# Sommaire B4-M3

## 4-3-1 Introduction aux réseaux
- 4-3-1-1 Différents réseaux pour différents usages
- 4-3-1-2 Notions générales sur les réseaux
- 4-3-1-3 Des transmissions essentiellement numériques
- 4-3-1-4 Introduction à Ethernet/TCP/IP
- 4-3-1-5 le modèle OSI

## 4-3-2 Couches physiques, Ethernet
- 4-3-2-1 Le rôle de la couche physique
- 4-3-2-2 Le protocole Ethernet
- 4-3-2-3 Relier des hôtes : le hub et le switch

## 4-3-3 Réseau IP
- 4-3-3-1 Le protocole IPV4
- 4-3-3-2 Le protocole DHCP
- 4-3-3-3 Le protocole IPV6

## 4-3-4 Routage
- 4-3-4-1 Le routage statique
- 4-3-4-2 Le protocole NAT
- 4-3-4-3 Le routage dynamique - Le protocole RIP
- 4-3-4-4 Le routage dynamique - Le protocole OSPF
- 4-3-4-5 Le routage dynamique - Le protocole BGP

## 4-3-5 Transport TCP/UDP
- 4-3-5-1 Présentation
- 4-3-5-2 Le protocole UDP
- 4-3-5-3 Le protocole TCP
- 4-3-5-4 La gestion des congestions via TCP

## 4-3-6 Application / Service
- 4-3-6-1 Service de noms de domaines (DNS)
- 4-3-6-2 HTTP, FTP, SMTP
- 4-3-6-3 NTP

## 4-3-7 Sécurité
- 4-3-7-1 Firewall / Proxy / DMZ
- 4-3-7-2 Chiffrement
- 4-3-7-3 SSH/SSL
- 4-3-7-4 VPN
- 4-3-7-5 VLAN

## 4-3-8 Autres réseaux


Evaluation Module 4.3 Réseaux
