\relax 
\providecommand\hyper@newdestlabel[2]{}
\@writefile{toc}{\contentsline {chapter}{\numberline {5}Leçons 10 à 12 -- La microarchitecture}{139}{chapter.5}\protected@file@percent }
\@writefile{lof}{\addvspace {10\p@ }}
\@writefile{lot}{\addvspace {10\p@ }}
\@writefile{lol}{\addvspace {10\p@ }}
\newlabel{cha:micro-arch}{{5}{139}{Leçons 10 à 12 -- La microarchitecture}{chapter.5}{}}
\@writefile{toc}{\contentsline {paragraph}{\nonumberline Brève perspective historique}{139}{section*.132}\protected@file@percent }
\@writefile{toc}{\contentsline {paragraph}{\nonumberline Contenu du chapitre}{140}{section*.134}\protected@file@percent }
\@writefile{toc}{\contentsline {section}{\numberline {5.1}Le \textit  {datapath} du MIC-1}{140}{section.5.1}\protected@file@percent }
\@writefile{toc}{\contentsline {subsection}{\numberline {5.1.1}Composants du Mic-1}{140}{subsection.5.1.1}\protected@file@percent }
\@writefile{toc}{\contentsline {paragraph}{\nonumberline Registres}{140}{section*.136}\protected@file@percent }
\@writefile{lof}{\contentsline {figure}{\numberline {\relax 5.1}{\ignorespaces Ferranti Mark 1 et IBM System/360}}{141}{figure.caption.133}\protected@file@percent }
\newlabel{fig:ibm360-Mark1}{{\relax 5.1}{141}{Ferranti Mark 1 et IBM System/360}{figure.caption.133}{}}
\@writefile{lof}{\contentsline {figure}{\numberline {\relax 5.2}{\ignorespaces Le chemin des données du Mic1}}{142}{figure.caption.135}\protected@file@percent }
\newlabel{fig:mic1}{{\relax 5.2}{142}{Le chemin des données du Mic1}{figure.caption.135}{}}
\@writefile{toc}{\contentsline {paragraph}{\nonumberline ALU et \textit  {shifter}}{144}{section*.137}\protected@file@percent }
\@writefile{toc}{\contentsline {subsection}{\numberline {5.1.2}Cycle d'exécution}{144}{subsection.5.1.2}\protected@file@percent }
\@writefile{toc}{\contentsline {subsection}{\numberline {5.1.3}Micro-instructions}{146}{subsection.5.1.3}\protected@file@percent }
\@writefile{toc}{\contentsline {paragraph}{\nonumberline Syntaxe pour le microlangage}{147}{section*.138}\protected@file@percent }
\@writefile{toc}{\contentsline {section}{\numberline {5.2}Le langage machine \textsc  {ijvm}\xspace  }{148}{section.5.2}\protected@file@percent }
\@writefile{toc}{\contentsline {subsection}{\numberline {5.2.1}Instructions du langage}{148}{subsection.5.2.1}\protected@file@percent }
\@writefile{lof}{\contentsline {figure}{\numberline {\relax 5.3}{\ignorespaces Un exemple de programme en \textsc  {ijvm}\xspace  , qui calcule la somme de trois nombres, et son effet sur la pile.\relax }}{149}{figure.caption.139}\protected@file@percent }
\newlabel{fig:ijvm-exemple-1}{{\relax 5.3}{149}{Un exemple de programme en \ijvm , qui calcule la somme de trois nombres, et son effet sur la pile.\relax }{figure.caption.139}{}}
\@writefile{lof}{\contentsline {figure}{\numberline {\relax 5.4}{\ignorespaces Un exemple de programme en \textsc  {ijvm}\xspace  , qui teste si les deux nombres au sommet de la pile sont égaux, et \textit  {push} un 1 si c'est le cas; un 0 dans le cas contraire.\relax }}{150}{figure.caption.140}\protected@file@percent }
\newlabel{fig:ijvm-exemple-2}{{\relax 5.4}{150}{Un exemple de programme en \ijvm , qui teste si les deux nombres au sommet de la pile sont égaux, et \textit {push} un 1 si c'est le cas; un 0 dans le cas contraire.\relax }{figure.caption.140}{}}
\@writefile{toc}{\contentsline {subsection}{\numberline {5.2.2}Représentation d'un programme \textsc  {ijvm}\xspace  en mémoire}{150}{subsection.5.2.2}\protected@file@percent }
\@writefile{lot}{\contentsline {table}{\numberline {\relax 5.1}{\ignorespaces Les opcodes IJVM que nous utiliserons. NB: par souci de cohérence de ces notes, nous avons adopté des opcodes différents de ceux de \cite {tanenbaum}.\relax }}{151}{table.caption.141}\protected@file@percent }
\newlabel{tab:opcodes}{{\relax 5.1}{151}{Les opcodes IJVM que nous utiliserons. NB: par souci de cohérence de ces notes, nous avons adopté des opcodes différents de ceux de \cite {tanenbaum}.\relax }{table.caption.141}{}}
\@writefile{toc}{\contentsline {section}{\numberline {5.3}Implémentation de l'\textsc  {ijvm}\xspace  sur le MIC1}{152}{section.5.3}\protected@file@percent }
\@writefile{toc}{\contentsline {subsection}{\numberline {5.3.1}Structure de l'interpréteur}{152}{subsection.5.3.1}\protected@file@percent }
\@writefile{lol}{\contentsline {lstlisting}{chapters/05\textendash structure.mic}{153}{lstlisting.5.-11}\protected@file@percent }
\@writefile{lof}{\contentsline {figure}{\numberline {\relax 5.5}{\ignorespaces Structure de l'interpréteur \textsc  {ijvm}\xspace  .\relax }}{153}{figure.caption.142}\protected@file@percent }
\newlabel{fig:struct}{{\relax 5.5}{153}{Structure de l'interpréteur \ijvm .\relax }{figure.caption.142}{}}
\@writefile{toc}{\contentsline {subsection}{\numberline {5.3.2}Lecture et décodage}{153}{subsection.5.3.2}\protected@file@percent }
\@writefile{lof}{\contentsline {figure}{\numberline {\relax 5.6}{\ignorespaces Une illustration de la pile en mémoire, et des registres correspondants.\relax }}{154}{figure.caption.143}\protected@file@percent }
\newlabel{fig:stack-mem}{{\relax 5.6}{154}{Une illustration de la pile en mémoire, et des registres correspondants.\relax }{figure.caption.143}{}}
\@writefile{toc}{\contentsline {subsection}{\numberline {5.3.3}Représentation de la pile en mémoire}{154}{subsection.5.3.3}\protected@file@percent }
\@writefile{toc}{\contentsline {subsection}{\numberline {5.3.4}Microcode de l'interpréteur}{155}{subsection.5.3.4}\protected@file@percent }
\@writefile{toc}{\contentsline {paragraph}{\nonumberline Instruction \texttt  {NOP}}{155}{section*.145}\protected@file@percent }
\@writefile{toc}{\contentsline {paragraph}{\nonumberline Instructions \texttt  {IADD} et \texttt  {ISUB}}{155}{section*.146}\protected@file@percent }
\@writefile{toc}{\contentsline {paragraph}{\nonumberline Instruction \texttt  {POP}}{155}{section*.147}\protected@file@percent }
\@writefile{lol}{\contentsline {lstlisting}{chapters/05\textendash microcode.mic}{156}{lstlisting.5.-14}\protected@file@percent }
\@writefile{lof}{\contentsline {figure}{\numberline {\relax 5.7}{\ignorespaces L'interpréteur \textsc  {ijvm}\xspace  .\relax }}{156}{figure.caption.144}\protected@file@percent }
\newlabel{fig:inter}{{\relax 5.7}{156}{L'interpréteur \ijvm .\relax }{figure.caption.144}{}}
\@writefile{toc}{\contentsline {paragraph}{\nonumberline Instruction \texttt  {BIPUSH}}{157}{section*.148}\protected@file@percent }
\@writefile{toc}{\contentsline {paragraph}{\nonumberline Instruction \texttt  {GOTO}}{157}{section*.149}\protected@file@percent }
\@writefile{toc}{\contentsline {paragraph}{\nonumberline L'instruction \texttt  {IFEQ}}{158}{section*.150}\protected@file@percent }
\@writefile{toc}{\contentsline {subsection}{\numberline {5.3.5}L'unité de contrôle du Mic-1}{158}{subsection.5.3.5}\protected@file@percent }
\@writefile{lof}{\contentsline {figure}{\numberline {\relax 5.8}{\ignorespaces Le Mic1 complet}}{159}{figure.caption.151}\protected@file@percent }
\newlabel{fig:mic1-full}{{\relax 5.8}{159}{Le Mic1 complet}{figure.caption.151}{}}
\@writefile{toc}{\contentsline {subsection}{\numberline {5.3.6}Le \textit  {Control Store}}{160}{subsection.5.3.6}\protected@file@percent }
\@writefile{lof}{\contentsline {figure}{\numberline {\relax 5.9}{\ignorespaces Le format binaire des microinstructions.\relax }}{161}{figure.caption.152}\protected@file@percent }
\newlabel{fig:format-mic}{{\relax 5.9}{161}{Le format binaire des microinstructions.\relax }{figure.caption.152}{}}
\@writefile{toc}{\contentsline {subsection}{\numberline {5.3.7}Le séquenceur}{161}{subsection.5.3.7}\protected@file@percent }
\@writefile{toc}{\contentsline {section}{\numberline {5.4}Pour aller plus loin\ldots  }{161}{section.5.4}\protected@file@percent }
\@setckpt{chapters/05-niveau1}{
\setcounter{page}{163}
\setcounter{equation}{0}
\setcounter{enumi}{4}
\setcounter{enumii}{2}
\setcounter{enumiii}{0}
\setcounter{enumiv}{0}
\setcounter{footnote}{14}
\setcounter{mpfootnote}{0}
\setcounter{part}{3}
\setcounter{chapter}{5}
\setcounter{section}{4}
\setcounter{subsection}{0}
\setcounter{subsubsection}{0}
\setcounter{paragraph}{0}
\setcounter{subparagraph}{0}
\setcounter{figure}{9}
\setcounter{table}{1}
\setcounter{FBcaption@count}{0}
\setcounter{parentequation}{0}
\setcounter{lstnumber}{1}
\setcounter{exo}{0}
\setcounter{exercice}{0}
\setcounter{questnum}{0}
\setcounter{Item}{133}
\setcounter{Hfootnote}{94}
\setcounter{Hy@AnnotLevel}{0}
\setcounter{bookmark@seq@number}{0}
\setcounter{r@tfl@t}{4}
\setcounter{tabx@nest}{0}
\setcounter{listtotal}{0}
\setcounter{listcount}{0}
\setcounter{liststart}{0}
\setcounter{liststop}{0}
\setcounter{citecount}{0}
\setcounter{citetotal}{0}
\setcounter{multicitecount}{0}
\setcounter{multicitetotal}{0}
\setcounter{instcount}{55}
\setcounter{maxnames}{3}
\setcounter{minnames}{1}
\setcounter{maxitems}{3}
\setcounter{minitems}{1}
\setcounter{citecounter}{0}
\setcounter{maxcitecounter}{0}
\setcounter{savedcitecounter}{0}
\setcounter{uniquelist}{0}
\setcounter{uniquename}{0}
\setcounter{refsection}{0}
\setcounter{refsegment}{0}
\setcounter{maxextratitle}{0}
\setcounter{maxextratitleyear}{0}
\setcounter{maxextraname}{2}
\setcounter{maxextradate}{0}
\setcounter{maxextraalpha}{0}
\setcounter{abbrvpenalty}{50}
\setcounter{highnamepenalty}{50}
\setcounter{lownamepenalty}{25}
\setcounter{maxparens}{3}
\setcounter{parenlevel}{0}
\setcounter{mincomprange}{10}
\setcounter{maxcomprange}{100000}
\setcounter{mincompwidth}{1}
\setcounter{afterword}{0}
\setcounter{savedafterword}{0}
\setcounter{annotator}{0}
\setcounter{savedannotator}{0}
\setcounter{author}{0}
\setcounter{savedauthor}{0}
\setcounter{bookauthor}{0}
\setcounter{savedbookauthor}{0}
\setcounter{commentator}{0}
\setcounter{savedcommentator}{0}
\setcounter{editor}{0}
\setcounter{savededitor}{0}
\setcounter{editora}{0}
\setcounter{savededitora}{0}
\setcounter{editorb}{0}
\setcounter{savededitorb}{0}
\setcounter{editorc}{0}
\setcounter{savededitorc}{0}
\setcounter{foreword}{0}
\setcounter{savedforeword}{0}
\setcounter{holder}{0}
\setcounter{savedholder}{0}
\setcounter{introduction}{0}
\setcounter{savedintroduction}{0}
\setcounter{namea}{0}
\setcounter{savednamea}{0}
\setcounter{nameb}{0}
\setcounter{savednameb}{0}
\setcounter{namec}{0}
\setcounter{savednamec}{0}
\setcounter{translator}{0}
\setcounter{savedtranslator}{0}
\setcounter{shortauthor}{0}
\setcounter{savedshortauthor}{0}
\setcounter{shorteditor}{0}
\setcounter{savedshorteditor}{0}
\setcounter{labelname}{0}
\setcounter{savedlabelname}{0}
\setcounter{institution}{0}
\setcounter{savedinstitution}{0}
\setcounter{lista}{0}
\setcounter{savedlista}{0}
\setcounter{listb}{0}
\setcounter{savedlistb}{0}
\setcounter{listc}{0}
\setcounter{savedlistc}{0}
\setcounter{listd}{0}
\setcounter{savedlistd}{0}
\setcounter{liste}{0}
\setcounter{savedliste}{0}
\setcounter{listf}{0}
\setcounter{savedlistf}{0}
\setcounter{location}{0}
\setcounter{savedlocation}{0}
\setcounter{organization}{0}
\setcounter{savedorganization}{0}
\setcounter{origlocation}{0}
\setcounter{savedoriglocation}{0}
\setcounter{origpublisher}{0}
\setcounter{savedorigpublisher}{0}
\setcounter{publisher}{0}
\setcounter{savedpublisher}{0}
\setcounter{language}{0}
\setcounter{savedlanguage}{0}
\setcounter{origlanguage}{0}
\setcounter{savedoriglanguage}{0}
\setcounter{pageref}{0}
\setcounter{savedpageref}{0}
\setcounter{textcitecount}{0}
\setcounter{textcitetotal}{0}
\setcounter{textcitemaxnames}{0}
\setcounter{biburlnumpenalty}{0}
\setcounter{biburlucpenalty}{0}
\setcounter{biburllcpenalty}{0}
\setcounter{smartand}{1}
\setcounter{bbx:relatedcount}{0}
\setcounter{bbx:relatedtotal}{0}
\setcounter{ifsymcnt}{0}
\setcounter{caption@flags}{0}
\setcounter{ContinuedFloat}{0}
\setcounter{@todonotes@numberoftodonotes}{0}
\setcounter{tikztiming@nrows}{3}
\setcounter{tikztimingrows}{0}
\setcounter{tikztimingtrans}{-1}
\setcounter{tikztimingtranspos}{0}
\setcounter{theorem}{1}
\setcounter{lstlisting}{0}
\setcounter{section@level}{1}
}
