# Sommaire B2-M1

## 2-1 Présentation du module

## 2-1-1 POO : une première approche

## 2-1-2 Projet Escape Game "le château"

- 2-1-2-1 Escape game "Le château" 1/4
- 2-1-2-2 Escape game "Le château" 2/4
- 2-1-2-3 Escape game "Le château" 3/4
- 2-1-2-4 Escape game "Le château" 4/4

## 2-1-3 Les concepts clés de la POO
