#FIG 3.2
Portrait
Center
Inches
A4      
100.00
Single
-2
1200 2
6 825 1650 1575 1875
2 2 0 1 0 7 50 0 -1 0.000 0 0 -1 0 0 5
	 825 1650 1575 1650 1575 1875 825 1875 825 1650
2 1 0 1 0 7 50 0 -1 0.000 0 0 -1 0 0 2
	 1275 1650 1275 1875
-6
6 2550 600 3300 4200
6 2550 825 3300 1050
2 1 0 1 0 7 50 0 -1 0.000 0 0 -1 0 0 2
	 3000 825 3000 1050
2 2 0 1 0 7 50 0 -1 0.000 0 0 -1 0 0 5
	 2550 825 3300 825 3300 1050 2550 1050 2550 825
-6
6 2550 1050 3300 1275
2 1 0 1 0 7 50 0 -1 0.000 0 0 -1 0 0 2
	 3000 1050 3000 1275
2 2 0 1 0 7 50 0 -1 0.000 0 0 -1 0 0 5
	 2550 1050 3300 1050 3300 1275 2550 1275 2550 1050
-6
6 2550 1275 3300 1500
2 1 0 1 0 7 50 0 -1 0.000 0 0 -1 0 0 2
	 3000 1275 3000 1500
2 2 0 1 0 7 50 0 -1 0.000 0 0 -1 0 0 5
	 2550 1275 3300 1275 3300 1500 2550 1500 2550 1275
-6
6 2550 1500 3300 1725
2 1 0 1 0 7 50 0 -1 0.000 0 0 -1 0 0 2
	 3000 1500 3000 1725
2 2 0 1 0 7 50 0 -1 0.000 0 0 -1 0 0 5
	 2550 1500 3300 1500 3300 1725 2550 1725 2550 1500
-6
6 2550 1725 3300 1950
2 1 0 1 0 7 50 0 -1 0.000 0 0 -1 0 0 2
	 3000 1725 3000 1950
2 2 0 1 0 7 50 0 -1 0.000 0 0 -1 0 0 5
	 2550 1725 3300 1725 3300 1950 2550 1950 2550 1725
-6
6 2550 1950 3300 2175
2 1 0 1 0 7 50 0 -1 0.000 0 0 -1 0 0 2
	 3000 1950 3000 2175
2 2 0 1 0 7 50 0 -1 0.000 0 0 -1 0 0 5
	 2550 1950 3300 1950 3300 2175 2550 2175 2550 1950
-6
6 2550 2175 3300 2400
2 1 0 1 0 7 50 0 -1 0.000 0 0 -1 0 0 2
	 3000 2175 3000 2400
2 2 0 1 0 7 50 0 -1 0.000 0 0 -1 0 0 5
	 2550 2175 3300 2175 3300 2400 2550 2400 2550 2175
-6
6 2550 2400 3300 2625
2 1 0 1 0 7 50 0 -1 0.000 0 0 -1 0 0 2
	 3000 2400 3000 2625
2 2 0 1 0 7 50 0 -1 0.000 0 0 -1 0 0 5
	 2550 2400 3300 2400 3300 2625 2550 2625 2550 2400
-6
6 2550 2625 3300 2850
2 1 0 1 0 7 50 0 -1 0.000 0 0 -1 0 0 2
	 3000 2625 3000 2850
2 2 0 1 0 7 50 0 -1 0.000 0 0 -1 0 0 5
	 2550 2625 3300 2625 3300 2850 2550 2850 2550 2625
-6
6 2550 2850 3300 3075
2 1 0 1 0 7 50 0 -1 0.000 0 0 -1 0 0 2
	 3000 2850 3000 3075
2 2 0 1 0 7 50 0 -1 0.000 0 0 -1 0 0 5
	 2550 2850 3300 2850 3300 3075 2550 3075 2550 2850
-6
6 2550 3075 3300 3300
2 1 0 1 0 7 50 0 -1 0.000 0 0 -1 0 0 2
	 3000 3075 3000 3300
2 2 0 1 0 7 50 0 -1 0.000 0 0 -1 0 0 5
	 2550 3075 3300 3075 3300 3300 2550 3300 2550 3075
-6
6 2550 3300 3300 3525
2 1 0 1 0 7 50 0 -1 0.000 0 0 -1 0 0 2
	 3000 3300 3000 3525
2 2 0 1 0 7 50 0 -1 0.000 0 0 -1 0 0 5
	 2550 3300 3300 3300 3300 3525 2550 3525 2550 3300
-6
6 2550 3525 3300 3750
2 1 0 1 0 7 50 0 -1 0.000 0 0 -1 0 0 2
	 3000 3525 3000 3750
2 2 0 1 0 7 50 0 -1 0.000 0 0 -1 0 0 5
	 2550 3525 3300 3525 3300 3750 2550 3750 2550 3525
-6
6 2550 3750 3300 3975
2 1 0 1 0 7 50 0 -1 0.000 0 0 -1 0 0 2
	 3000 3750 3000 3975
2 2 0 1 0 7 50 0 -1 0.000 0 0 -1 0 0 5
	 2550 3750 3300 3750 3300 3975 2550 3975 2550 3750
-6
6 2550 3975 3300 4200
2 1 0 1 0 7 50 0 -1 0.000 0 0 -1 0 0 2
	 3000 3975 3000 4200
2 2 0 1 0 7 50 0 -1 0.000 0 0 -1 0 0 5
	 2550 3975 3300 3975 3300 4200 2550 4200 2550 3975
-6
2 1 0 1 0 7 50 0 -1 0.000 0 0 -1 0 0 2
	 3000 600 3000 825
2 2 0 1 0 7 50 0 -1 0.000 0 0 -1 0 0 5
	 2550 600 3300 600 3300 825 2550 825 2550 600
4 0 0 50 0 0 10 0.0000 4 105 300 2625 750 1926\001
4 0 0 50 0 0 10 0.0000 4 105 300 2625 975 1942\001
4 0 0 50 0 0 10 0.0000 4 105 300 2625 1200 1958\001
4 0 0 50 0 0 10 0.0000 4 105 300 2625 1425 1960\001
4 0 0 50 0 0 10 0.0000 4 105 300 2625 1650 1969\001
4 0 0 50 0 0 10 0.0000 4 105 300 2625 1875 1977\001
4 0 0 50 0 0 10 0.0000 4 105 300 2625 2100 1979\001
4 0 0 50 0 0 10 0.0000 4 105 300 2625 2325 1980\001
4 0 0 50 0 0 10 0.0000 4 105 300 2625 2550 1984\001
4 0 0 50 0 0 10 0.0000 4 105 300 2625 2775 1984\001
4 0 0 50 0 0 10 0.0000 4 105 300 2625 3000 1990\001
4 0 0 50 0 0 10 0.0000 4 105 300 2625 3225 1992\001
4 0 0 50 0 0 10 0.0000 4 105 300 2625 3450 1992\001
4 0 0 50 0 0 10 0.0000 4 105 300 2625 3900 1995\001
4 0 0 50 0 0 10 0.0000 4 105 300 2625 3675 1992\001
4 0 0 50 0 0 10 0.0000 4 105 300 2625 4125 1995\001
-6
6 825 1875 1575 2100
2 2 0 1 0 7 50 0 -1 0.000 0 0 -1 0 0 5
	 825 1875 1575 1875 1575 2100 825 2100 825 1875
2 1 0 1 0 7 50 0 -1 0.000 0 0 -1 0 0 2
	 1275 1875 1275 2100
-6
6 825 2100 1575 2325
2 2 0 1 0 7 50 0 -1 0.000 0 0 -1 0 0 5
	 825 2100 1575 2100 1575 2325 825 2325 825 2100
2 1 0 1 0 7 50 0 -1 0.000 0 0 -1 0 0 2
	 1275 2100 1275 2325
-6
6 825 2325 1575 2550
2 2 0 1 0 7 50 0 -1 0.000 0 0 -1 0 0 5
	 825 2325 1575 2325 1575 2550 825 2550 825 2325
2 1 0 1 0 7 50 0 -1 0.000 0 0 -1 0 0 2
	 1275 2325 1275 2550
-6
2 1 0 1 0 7 50 0 -1 0.000 0 0 -1 0 0 2
	 5325 3450 5325 3675
2 1 0 1 0 7 50 0 -1 0.000 0 0 -1 0 0 2
	 5700 3450 5700 3675
2 1 0 1 0 7 50 0 -1 0.000 0 0 -1 0 0 2
	 5325 1575 5325 1800
2 1 0 1 0 7 50 0 -1 0.000 0 0 -1 0 0 2
	 5325 1350 5325 1575
2 1 0 1 0 7 50 0 -1 0.000 0 0 -1 0 0 2
	 5700 1350 5700 1575
2 1 0 1 0 7 50 0 -1 0.000 0 0 -1 0 0 2
	 5700 1575 5700 1800
2 1 0 1 0 7 50 0 -1 0.000 0 0 -1 0 0 2
	 5325 1800 5325 2025
2 1 0 1 0 7 50 0 -1 0.000 0 0 -1 0 0 2
	 5700 1800 5700 2025
2 1 0 1 0 7 50 0 -1 0.000 0 0 -1 0 0 2
	 5325 975 5325 1200
2 1 0 1 0 7 50 0 -1 0.000 0 0 -1 0 0 2
	 5700 975 5700 1200
2 1 0 1 0 7 50 0 -1 0.000 0 0 -1 0 0 2
	 5325 750 5325 975
2 1 0 1 0 7 50 0 -1 0.000 0 0 -1 0 0 2
	 5700 750 5700 975
2 1 0 1 0 7 50 0 -1 0.000 0 0 -1 0 0 2
	 5325 525 5325 750
2 1 0 1 0 7 50 0 -1 0.000 0 0 -1 0 0 2
	 5700 525 5700 750
2 1 0 1 0 7 50 0 -1 0.000 0 0 -1 0 0 2
	 5325 300 5325 525
2 1 0 1 0 7 50 0 -1 0.000 0 0 -1 0 0 2
	 5700 300 5700 525
2 1 0 1 0 7 50 0 -1 0.000 0 0 -1 0 0 2
	 5325 2025 5325 2250
2 1 0 1 0 7 50 0 -1 0.000 0 0 -1 0 0 2
	 5700 2025 5700 2250
2 1 0 1 0 7 50 0 -1 0.000 0 0 -1 0 0 2
	 5325 2400 5325 2625
2 1 0 1 0 7 50 0 -1 0.000 0 0 -1 0 0 2
	 5700 2400 5700 2625
2 1 0 1 0 7 50 0 -1 0.000 0 0 -1 0 0 2
	 5325 2625 5325 2850
2 1 0 1 0 7 50 0 -1 0.000 0 0 -1 0 0 2
	 5700 2625 5700 2850
2 1 0 1 0 7 50 0 -1 0.000 0 0 -1 0 0 2
	 5325 2850 5325 3075
2 1 0 1 0 7 50 0 -1 0.000 0 0 -1 0 0 2
	 5700 2850 5700 3075
2 1 0 1 0 7 50 0 -1 0.000 0 0 -1 0 0 2
	 5325 3075 5325 3300
2 1 0 1 0 7 50 0 -1 0.000 0 0 -1 0 0 2
	 5700 3075 5700 3300
2 1 0 1 0 7 50 0 -1 0.000 0 0 -1 0 0 2
	 5325 3675 5325 3900
2 1 0 1 0 7 50 0 -1 0.000 0 0 -1 0 0 2
	 5700 3675 5700 3900
2 1 0 1 0 7 50 0 -1 0.000 0 0 -1 0 0 2
	 5325 3900 5325 4125
2 1 0 1 0 7 50 0 -1 0.000 0 0 -1 0 0 2
	 5700 3900 5700 4125
2 1 0 1 0 7 50 0 -1 0.000 0 0 -1 0 0 2
	 5325 4125 5325 4350
2 1 0 1 0 7 50 0 -1 0.000 0 0 -1 0 0 2
	 5700 4125 5700 4350
2 2 0 1 0 7 50 0 -1 0.000 0 0 -1 0 0 5
	 4350 975 6000 975 6000 1200 4350 1200 4350 975
2 2 0 1 0 7 50 0 -1 0.000 0 0 -1 0 0 5
	 4350 300 6000 300 6000 525 4350 525 4350 300
2 2 0 1 0 7 50 0 -1 0.000 0 0 -1 0 0 5
	 4350 525 6000 525 6000 750 4350 750 4350 525
2 2 0 1 0 7 50 0 -1 0.000 0 0 -1 0 0 5
	 4350 750 6000 750 6000 975 4350 975 4350 750
2 2 0 1 0 7 50 0 -1 0.000 0 0 -1 0 0 5
	 4350 1350 6000 1350 6000 1575 4350 1575 4350 1350
2 2 0 1 0 7 50 0 -1 0.000 0 0 -1 0 0 5
	 4350 1575 6000 1575 6000 1800 4350 1800 4350 1575
2 2 0 1 0 7 50 0 -1 0.000 0 0 -1 0 0 5
	 4350 1800 6000 1800 6000 2025 4350 2025 4350 1800
2 2 0 1 0 7 50 0 -1 0.000 0 0 -1 0 0 5
	 4350 2025 6000 2025 6000 2250 4350 2250 4350 2025
2 2 0 1 0 7 50 0 -1 0.000 0 0 -1 0 0 5
	 4350 2400 6000 2400 6000 2625 4350 2625 4350 2400
2 2 0 1 0 7 50 0 -1 0.000 0 0 -1 0 0 5
	 4350 2625 6000 2625 6000 2850 4350 2850 4350 2625
2 2 0 1 0 7 50 0 -1 0.000 0 0 -1 0 0 5
	 4350 2850 6000 2850 6000 3075 4350 3075 4350 2850
2 2 0 1 0 7 50 0 -1 0.000 0 0 -1 0 0 5
	 4350 3075 6000 3075 6000 3300 4350 3300 4350 3075
2 2 0 1 0 7 50 0 -1 0.000 0 0 -1 0 0 5
	 4350 3450 6000 3450 6000 3675 4350 3675 4350 3450
2 2 0 1 0 7 50 0 -1 0.000 0 0 -1 0 0 5
	 4350 3675 6000 3675 6000 3900 4350 3900 4350 3675
2 2 0 1 0 7 50 0 -1 0.000 0 0 -1 0 0 5
	 4350 3900 6000 3900 6000 4125 4350 4125 4350 3900
2 2 0 1 0 7 50 0 -1 0.000 0 0 -1 0 0 5
	 4350 4125 6000 4125 6000 4350 4350 4350 4350 4125
2 1 0 1 0 7 50 0 -1 0.000 0 0 -1 1 0 2
	1 1 1.00 60.00 120.00
	 3150 750 4350 2550
2 1 0 1 0 7 50 0 -1 0.000 0 0 -1 1 0 2
	1 1 1.00 60.00 120.00
	 3150 900 4350 900
2 1 0 1 0 7 50 0 -1 0.000 0 0 -1 1 0 2
	1 1 1.00 60.00 120.00
	 3150 1125 4350 4275
2 1 0 1 0 7 50 0 -1 0.000 0 0 -1 1 0 2
	1 1 1.00 60.00 120.00
	 3150 1425 4350 2775
2 1 0 1 0 7 50 0 -1 0.000 0 0 -1 1 0 2
	1 1 1.00 60.00 120.00
	 3150 1650 4350 1125
2 1 0 1 0 7 50 0 -1 0.000 0 0 -1 1 0 2
	1 1 1.00 60.00 120.00
	 3150 1800 4350 450
2 1 0 1 0 7 50 0 -1 0.000 0 0 -1 1 0 2
	1 1 1.00 60.00 120.00
	 3150 2100 4350 2100
2 1 0 1 0 7 50 0 -1 0.000 0 0 -1 1 0 2
	1 1 1.00 60.00 120.00
	 3150 2250 4350 3225
2 1 0 1 0 7 50 0 -1 0.000 0 0 -1 1 0 2
	1 1 1.00 60.00 120.00
	 3150 2475 4350 600
2 1 0 1 0 7 50 0 -1 0.000 0 0 -1 1 0 2
	1 1 1.00 60.00 120.00
	 3150 2775 4350 1425
2 1 0 1 0 7 50 0 -1 0.000 0 0 -1 1 0 2
	1 1 1.00 60.00 120.00
	 3150 3000 4350 3825
2 1 0 1 0 7 50 0 -1 0.000 0 0 -1 1 0 2
	1 1 1.00 60.00 120.00
	 3075 3150 4350 1650
2 1 0 1 0 7 50 0 -1 0.000 0 0 -1 1 0 2
	1 1 1.00 60.00 120.00
	 3150 3375 4350 1875
2 1 0 1 0 7 50 0 -1 0.000 0 0 -1 1 0 2
	1 1 1.00 60.00 120.00
	 3150 3600 4350 3000
2 1 0 1 0 7 50 0 -1 0.000 0 0 -1 1 0 2
	1 1 1.00 60.00 120.00
	 3150 3825 4350 3525
2 1 0 1 0 7 50 0 -1 0.000 0 0 -1 1 0 2
	1 1 1.00 60.00 120.00
	 3150 4050 4350 4050
2 1 0 1 0 7 50 0 -1 0.000 0 0 7 1 0 2
	1 1 1.00 60.00 120.00
	 1425 1800 2550 675
2 1 0 1 0 7 50 0 -1 0.000 0 0 -1 1 0 2
	1 1 1.00 60.00 120.00
	 1425 2025 2550 1650
2 1 0 1 0 7 50 0 -1 0.000 0 0 -1 1 0 2
	1 1 1.00 60.00 120.00
	 1425 2250 2550 2475
2 1 0 1 0 7 50 0 -1 0.000 0 0 -1 1 0 2
	1 1 1.00 60.00 120.00
	 1425 2475 2550 3375
2 1 0 3 0 7 100 0 -1 0.000 0 0 7 0 0 2
	 2550 1500 3300 1500
2 1 0 3 0 7 100 0 -1 0.000 0 0 7 0 0 2
	 2550 2400 3300 2400
2 1 0 3 0 7 100 0 -1 0.000 0 0 7 0 0 2
	 2550 3300 3300 3300
4 0 0 50 0 0 11 0.0000 4 15 135 5751 450 ...\001
4 0 0 50 0 0 10 0.0000 4 105 1095 4500 3600 Smoke             1995\001
4 0 0 50 0 0 10 0.0000 4 105 1155 4500 3825 Twin Peaks     1990\001
4 0 0 50 0 0 10 0.0000 4 135 1215 4500 4050 Underground   1995\001
4 0 0 50 0 0 10 0.0000 4 105 1110 4500 675 Brazil              1984\001
4 0 0 50 0 0 10 0.0000 4 105 1185 4500 450 Annie Hall      1977\001
4 0 0 50 0 0 10 0.0000 4 15 135 5850 3600 ...\001
4 0 0 50 0 0 10 0.0000 4 105 1155 4500 900 Casablanca      1942\001
4 0 0 50 0 0 10 0.0000 4 135 1170 4500 1125 Easy Rider       1969\001
4 0 0 50 0 0 10 0.0000 4 15 30 5250 1500  \001
4 0 0 50 0 0 10 0.0000 4 15 135 5850 1500 ...\001
4 0 0 50 0 0 10 0.0000 4 15 135 5850 1725 ...\001
4 0 0 50 0 0 10 0.0000 4 15 135 5850 1950 ...\001
4 0 0 50 0 0 10 0.0000 4 15 30 5175 2250  \001
4 0 0 50 0 0 10 0.0000 4 135 1170 4500 1500 Greystoke        1984\001
4 0 0 50 0 0 10 0.0000 4 105 1185 4500 1725 Jurassic Park   1992\001
4 0 0 50 0 0 10 0.0000 4 135 1215 4500 1950 Impitoyable     1992\001
4 0 0 50 0 0 10 0.0000 4 105 1155 4500 2175 Manhattan      1979\001
4 0 0 50 0 0 10 0.0000 4 135 1305 4425 3000 Reservoir Dogs  1992\001
4 0 0 50 0 0 10 0.0000 4 135 1155 4500 4275 Vertigo            1958\001
4 0 0 50 0 0 10 0.0000 4 15 135 5850 1125 ...\001
4 0 0 50 0 0 10 0.0000 4 15 135 5850 900 ...\001
4 0 0 50 0 0 10 0.0000 4 15 135 5850 675 ...\001
4 0 0 50 0 0 10 0.0000 4 15 135 5850 450 ...\001
4 0 0 50 0 0 10 0.0000 4 15 135 5850 2175 ...\001
4 0 0 50 0 0 10 0.0000 4 15 135 5850 2550 ...\001
4 0 0 50 0 0 10 0.0000 4 15 135 5850 2775 ...\001
4 0 0 50 0 0 10 0.0000 4 15 135 5850 3000 ...\001
4 0 0 50 0 0 10 0.0000 4 15 135 5850 3225 ...\001
4 0 0 50 0 0 10 0.0000 4 15 135 5850 3825 ...\001
4 0 0 50 0 0 10 0.0000 4 15 135 5850 4050 ...\001
4 0 0 50 0 0 10 0.0000 4 15 135 5850 4275 ...\001
4 0 0 50 0 0 10 0.0000 4 135 1290 4425 2550 Metropolis         1926\001
4 0 0 50 0 0 10 0.0000 4 135 1215 4425 2775 Psychose            1960\001
4 0 0 50 0 0 10 0.0000 4 135 1155 4425 3225 Shining             1980\001
4 0 0 50 0 0 10 0.0000 4 105 300 900 1800 1926\001
4 0 0 50 0 0 10 0.0000 4 105 300 900 2025 1969\001
4 0 0 50 0 0 10 0.0000 4 105 300 900 2250 1984\001
4 0 0 50 0 0 10 0.0000 4 105 300 900 2475 1992\001
