#FIG 3.2
Portrait
Center
Inches
A4      
100.00
Single
-2
1200 2
6 150 1500 1800 2400
2 1 0 1 0 7 50 0 -1 0.000 0 0 -1 0 0 2
	 1125 2175 1125 2400
2 1 0 1 0 7 50 0 -1 0.000 0 0 -1 0 0 2
	 1500 2175 1500 2400
2 1 0 1 0 7 50 0 -1 0.000 0 0 -1 0 0 2
	 1125 1950 1125 2175
2 1 0 1 0 7 50 0 -1 0.000 0 0 -1 0 0 2
	 1500 1950 1500 2175
2 1 0 1 0 7 50 0 -1 0.000 0 0 -1 0 0 2
	 1125 1725 1125 1950
2 1 0 1 0 7 50 0 -1 0.000 0 0 -1 0 0 2
	 1500 1725 1500 1950
2 1 0 1 0 7 50 0 -1 0.000 0 0 -1 0 0 2
	 1125 1500 1125 1725
2 1 0 1 0 7 50 0 -1 0.000 0 0 -1 0 0 2
	 1500 1500 1500 1725
2 2 0 1 0 7 50 0 -1 0.000 0 0 -1 0 0 5
	 150 2175 1800 2175 1800 2400 150 2400 150 2175
2 2 0 1 0 7 50 0 -1 0.000 0 0 -1 0 0 5
	 150 1500 1800 1500 1800 1725 150 1725 150 1500
2 2 0 1 0 7 50 0 -1 0.000 0 0 -1 0 0 5
	 150 1725 1800 1725 1800 1950 150 1950 150 1725
2 2 0 1 0 7 50 0 -1 0.000 0 0 -1 0 0 5
	 150 1950 1800 1950 1800 2175 150 2175 150 1950
4 0 0 50 0 0 11 0.0000 4 15 135 1551 1650 ...\001
4 0 0 50 0 0 10 0.0000 4 105 1110 300 1875 Brazil              1984\001
4 0 0 50 0 0 10 0.0000 4 105 1185 300 1650 Annie Hall      1977\001
4 0 0 50 0 0 10 0.0000 4 105 1155 300 2100 Casablanca      1942\001
4 0 0 50 0 0 10 0.0000 4 135 1170 300 2325 Easy Rider       1969\001
4 0 0 50 0 0 10 0.0000 4 15 135 1650 2325 ...\001
4 0 0 50 0 0 10 0.0000 4 15 135 1650 2100 ...\001
4 0 0 50 0 0 10 0.0000 4 15 135 1650 1875 ...\001
4 0 0 50 0 0 10 0.0000 4 15 135 1650 1650 ...\001
-6
6 4125 1500 5775 2400
2 1 0 1 0 7 50 0 -1 0.000 0 0 -1 0 0 2
	 5100 1500 5100 1725
2 1 0 1 0 7 50 0 -1 0.000 0 0 -1 0 0 2
	 5475 1500 5475 1725
2 1 0 1 0 7 50 0 -1 0.000 0 0 -1 0 0 2
	 5100 1725 5100 1950
2 1 0 1 0 7 50 0 -1 0.000 0 0 -1 0 0 2
	 5475 1725 5475 1950
2 1 0 1 0 7 50 0 -1 0.000 0 0 -1 0 0 2
	 5100 1950 5100 2175
2 1 0 1 0 7 50 0 -1 0.000 0 0 -1 0 0 2
	 5475 1950 5475 2175
2 1 0 1 0 7 50 0 -1 0.000 0 0 -1 0 0 2
	 5100 2175 5100 2400
2 1 0 1 0 7 50 0 -1 0.000 0 0 -1 0 0 2
	 5475 2175 5475 2400
2 2 0 1 0 7 50 0 -1 0.000 0 0 -1 0 0 5
	 4125 1500 5775 1500 5775 1725 4125 1725 4125 1500
2 2 0 1 0 7 50 0 -1 0.000 0 0 -1 0 0 5
	 4125 1725 5775 1725 5775 1950 4125 1950 4125 1725
2 2 0 1 0 7 50 0 -1 0.000 0 0 -1 0 0 5
	 4125 1950 5775 1950 5775 2175 4125 2175 4125 1950
2 2 0 1 0 7 50 0 -1 0.000 0 0 -1 0 0 5
	 4125 2175 5775 2175 5775 2400 4125 2400 4125 2175
4 0 0 50 0 0 10 0.0000 4 105 1095 4275 1650 Smoke             1995\001
4 0 0 50 0 0 10 0.0000 4 105 1155 4275 1875 Twin Peaks     1990\001
4 0 0 50 0 0 10 0.0000 4 135 1215 4275 2100 Underground   1995\001
4 0 0 50 0 0 10 0.0000 4 15 135 5625 1650 ...\001
4 0 0 50 0 0 10 0.0000 4 135 1155 4275 2325 Vertigo            1958\001
4 0 0 50 0 0 10 0.0000 4 15 135 5625 1875 ...\001
4 0 0 50 0 0 10 0.0000 4 15 135 5625 2100 ...\001
4 0 0 50 0 0 10 0.0000 4 15 135 5625 2325 ...\001
-6
6 1500 2625 3150 3525
2 1 0 1 0 7 50 0 -1 0.000 0 0 -1 0 0 2
	 2475 2850 2475 3075
2 1 0 1 0 7 50 0 -1 0.000 0 0 -1 0 0 2
	 2475 2625 2475 2850
2 1 0 1 0 7 50 0 -1 0.000 0 0 -1 0 0 2
	 2850 2625 2850 2850
2 1 0 1 0 7 50 0 -1 0.000 0 0 -1 0 0 2
	 2850 2850 2850 3075
2 1 0 1 0 7 50 0 -1 0.000 0 0 -1 0 0 2
	 2475 3075 2475 3300
2 1 0 1 0 7 50 0 -1 0.000 0 0 -1 0 0 2
	 2850 3075 2850 3300
2 1 0 1 0 7 50 0 -1 0.000 0 0 -1 0 0 2
	 2475 3300 2475 3525
2 1 0 1 0 7 50 0 -1 0.000 0 0 -1 0 0 2
	 2850 3300 2850 3525
2 2 0 1 0 7 50 0 -1 0.000 0 0 -1 0 0 5
	 1500 2625 3150 2625 3150 2850 1500 2850 1500 2625
2 2 0 1 0 7 50 0 -1 0.000 0 0 -1 0 0 5
	 1500 2850 3150 2850 3150 3075 1500 3075 1500 2850
2 2 0 1 0 7 50 0 -1 0.000 0 0 -1 0 0 5
	 1500 3075 3150 3075 3150 3300 1500 3300 1500 3075
2 2 0 1 0 7 50 0 -1 0.000 0 0 -1 0 0 5
	 1500 3300 3150 3300 3150 3525 1500 3525 1500 3300
4 0 0 50 0 0 10 0.0000 4 15 30 2400 2775  \001
4 0 0 50 0 0 10 0.0000 4 15 135 3000 2775 ...\001
4 0 0 50 0 0 10 0.0000 4 15 135 3000 3000 ...\001
4 0 0 50 0 0 10 0.0000 4 15 135 3000 3225 ...\001
4 0 0 50 0 0 10 0.0000 4 15 30 2325 3525  \001
4 0 0 50 0 0 10 0.0000 4 135 1170 1650 2775 Greystoke        1984\001
4 0 0 50 0 0 10 0.0000 4 105 1185 1650 3000 Jurassic Park   1992\001
4 0 0 50 0 0 10 0.0000 4 135 1215 1650 3225 Impitoyable     1992\001
4 0 0 50 0 0 10 0.0000 4 105 1155 1650 3450 Manhattan      1979\001
4 0 0 50 0 0 10 0.0000 4 15 135 3000 3450 ...\001
-6
6 3375 2625 5025 3525
2 1 0 1 0 7 50 0 -1 0.000 0 0 -1 0 0 2
	 4350 2625 4350 2850
2 1 0 1 0 7 50 0 -1 0.000 0 0 -1 0 0 2
	 4725 2625 4725 2850
2 1 0 1 0 7 50 0 -1 0.000 0 0 -1 0 0 2
	 4350 2850 4350 3075
2 1 0 1 0 7 50 0 -1 0.000 0 0 -1 0 0 2
	 4725 2850 4725 3075
2 1 0 1 0 7 50 0 -1 0.000 0 0 -1 0 0 2
	 4350 3075 4350 3300
2 1 0 1 0 7 50 0 -1 0.000 0 0 -1 0 0 2
	 4725 3075 4725 3300
2 1 0 1 0 7 50 0 -1 0.000 0 0 -1 0 0 2
	 4350 3300 4350 3525
2 1 0 1 0 7 50 0 -1 0.000 0 0 -1 0 0 2
	 4725 3300 4725 3525
2 2 0 1 0 7 50 0 -1 0.000 0 0 -1 0 0 5
	 3375 2625 5025 2625 5025 2850 3375 2850 3375 2625
2 2 0 1 0 7 50 0 -1 0.000 0 0 -1 0 0 5
	 3375 2850 5025 2850 5025 3075 3375 3075 3375 2850
2 2 0 1 0 7 50 0 -1 0.000 0 0 -1 0 0 5
	 3375 3075 5025 3075 5025 3300 3375 3300 3375 3075
2 2 0 1 0 7 50 0 -1 0.000 0 0 -1 0 0 5
	 3375 3300 5025 3300 5025 3525 3375 3525 3375 3300
4 0 0 50 0 0 10 0.0000 4 135 1305 3450 3225 Reservoir Dogs  1992\001
4 0 0 50 0 0 10 0.0000 4 15 135 4875 2775 ...\001
4 0 0 50 0 0 10 0.0000 4 15 135 4875 3000 ...\001
4 0 0 50 0 0 10 0.0000 4 15 135 4875 3225 ...\001
4 0 0 50 0 0 10 0.0000 4 15 135 4875 3450 ...\001
4 0 0 50 0 0 10 0.0000 4 135 1290 3450 2775 Metropolis         1926\001
4 0 0 50 0 0 10 0.0000 4 135 1215 3450 3000 Psychose            1960\001
4 0 0 50 0 0 10 0.0000 4 135 1155 3450 3450 Shining             1980\001
-6
6 1650 525 4500 975
2 2 0 1 0 7 50 0 -1 0.000 0 0 -1 0 0 5
	 1650 525 4500 525 4500 750 1650 750 1650 525
2 1 0 1 0 7 50 0 -1 0.000 0 0 -1 0 0 2
	 2475 525 2475 975
2 1 0 1 0 7 50 0 -1 0.000 0 0 -1 0 0 2
	 3225 525 3225 975
2 2 0 1 0 7 50 0 -1 0.000 0 0 -1 0 0 5
	 1650 750 4500 750 4500 975 1650 975 1650 750
2 1 0 1 0 7 50 0 -1 0.000 0 0 -1 0 0 2
	 3975 525 3975 975
4 0 0 50 0 0 10 0.0000 4 105 705 1725 675 Annie Hall\001
4 0 0 50 0 0 10 0.0000 4 135 630 2550 675 Greystoke\001
4 0 0 50 0 0 10 0.0000 4 135 720 3300 675 Metropolis\001
4 0 0 50 0 0 10 0.0000 4 105 405 4050 675 Smoke\001
-6
2 1 0 1 0 7 100 0 -1 0.000 0 0 -1 1 0 4
	1 1 1.00 60.00 120.00
	 2100 825 2100 1200 375 1200 375 1500
2 1 0 1 0 7 100 0 -1 0.000 0 0 -1 1 0 4
	1 1 1.00 60.00 120.00
	 2850 825 2850 1800 2025 1800 2025 2550
2 1 0 1 0 7 100 0 -1 0.000 0 0 -1 1 0 4
	1 1 1.00 60.00 120.00
	 3525 825 3525 1800 3825 1800 3825 2625
2 1 0 1 0 7 100 0 -1 0.000 0 0 -1 1 0 4
	1 1 1.00 60.00 120.00
	 4200 825 4200 1200 4500 1200 4500 1500
2 4 0 0 0 7 300 0 20 0.000 0 0 7 0 0 5
	 5850 3600 5850 375 75 375 75 3600 5850 3600
