#FIG 3.2
Portrait
Center
Inches
A4      
100.00
Single
-2
1200 2
6 940 -35 2850 1875
1 3 0 1 0 7 100 0 -1 4.000 1 0.0000 1895 920 955 955 1895 920 2570 1595
1 3 0 1 0 7 100 0 -1 4.000 1 0.0000 1895 920 855 855 1895 920 2420 1595
1 3 0 1 0 7 100 0 -1 4.000 1 0.0000 1895 920 742 742 1895 920 2420 1445
1 3 0 1 0 7 100 0 -1 4.000 1 0.0000 1895 920 636 636 1895 920 2345 1370
1 3 0 1 0 7 100 0 -1 4.000 1 0.0000 1895 920 530 530 1895 920 2270 1295
1 3 0 1 0 7 100 0 -1 4.000 1 0.0000 1895 920 424 424 1895 920 2195 1220
2 3 0 1 0 7 100 0 0 4.000 0 0 -1 0 0 5
	 2255 1317 2322 1400 2412 1295 2322 1212 2255 1317
2 3 0 1 0 7 100 0 0 4.000 0 0 -1 0 0 5
	 1392 1610 1325 1700 1430 1745 1482 1662 1392 1610
2 3 0 1 0 7 100 0 0 4.000 0 0 -1 0 0 5
	 1257 530 1332 590 1422 492 1355 417 1257 530
2 3 0 1 0 7 100 0 0 4.000 0 0 -1 0 0 5
	 1820 1670 1827 1775 1970 1767 1970 1670 1820 1670
2 3 0 1 0 7 100 0 0 4.000 0 0 -1 0 0 5
	 2172 590 2255 522 2322 612 2247 680 2172 590
-6
1 3 0 1 0 7 100 0 -1 4.000 1 0.0000 4295 920 955 955 4295 920 4970 1595
1 3 0 1 0 7 100 0 -1 4.000 1 0.0000 4295 920 855 855 4295 920 4820 1595
1 3 0 1 0 7 50 0 20 4.000 1 0.0000 4295 920 742 742 4295 920 4820 1445
1 3 0 1 0 7 50 0 20 4.000 1 0.0000 4295 920 636 636 4295 920 4745 1370
1 3 0 1 0 7 50 0 20 4.000 1 0.0000 4295 920 530 530 4295 920 4670 1295
1 3 0 1 0 7 50 0 20 4.000 1 0.0000 4295 920 424 424 4295 920 4595 1220
2 3 0 1 0 7 100 0 0 4.000 0 0 -1 0 0 5
	 4220 1670 4227 1775 4370 1767 4370 1670 4220 1670
2 3 0 1 0 7 100 0 0 4.000 0 0 -1 0 0 6
	 4387 1665 4552 1620 4597 1725 4477 1755 4380 1777 4387 1665
4 0 0 100 0 0 10 0.0000 4 135 195 4275 2100 (b)\001
4 0 0 100 0 0 10 0.0000 4 135 180 1875 2100 (a)\001
