#FIG 3.2
Landscape
Center
Metric
A4      
100.00
Single
-2
1200 2
6 765 1620 1440 2025
4 0 0 100 0 1 10 0.0000 4 105 570 765 1755 Parcours\001
4 0 0 100 0 1 10 0.0000 4 165 645 765 1950 s\351quentiel\001
-6
6 2880 1620 3465 2025
4 0 0 100 0 1 10 0.0000 4 120 420 2880 1755 Acc\350s \001
4 0 0 100 0 1 10 0.0000 4 150 570 2880 1950 par index\001
-6
2 4 0 1 0 7 100 0 -1 0.000 0 0 7 0 0 5
	 2565 990 2565 720 1845 720 1845 990 2565 990
2 1 0 1 0 7 100 0 -1 0.000 0 0 -1 1 0 2
	1 1 1.00 60.00 120.00
	 1035 1575 1845 945
2 1 0 1 0 7 100 0 -1 0.000 0 0 -1 1 0 2
	1 1 1.00 60.00 120.00
	 2970 1575 2565 945
2 1 0 1 0 7 100 0 -1 0.000 0 0 -1 1 0 2
	1 1 1.00 60.00 120.00
	 2205 720 2205 450
2 4 0 1 0 7 100 0 -1 0.000 0 0 7 0 0 5
	 1395 2070 1395 1575 675 1575 675 2070 1395 2070
2 4 0 1 0 7 100 0 -1 0.000 0 0 7 0 0 5
	 3510 2025 3510 1575 2790 1575 2790 2025 3510 2025
4 0 0 100 0 1 10 0.0000 4 105 510 2025 900 Jointure\001
4 0 0 100 0 -1 10 0.0000 4 105 315 900 1395 Film\001
4 0 0 100 0 -1 10 0.0000 4 105 570 2925 1395 Notation\001
