%!PS-Adobe-2.0 EPSF-2.0
%%Title: planlogique.fig
%%Creator: fig2dev Version 3.2.3 Patchlevel 
%%CreationDate: Tue Apr 16 09:58:18 2002
%%For: rigaux@cartier (Philippe Rigaux)
%%BoundingBox: 0 0 237 298
%%Magnification: 1.0000
%%EndComments
/$F2psDict 200 dict def
$F2psDict begin
$F2psDict /mtrx matrix put
/col-1 {0 setgray} bind def
/col0 {0.000 0.000 0.000 srgb} bind def
/col1 {0.000 0.000 1.000 srgb} bind def
/col2 {0.000 1.000 0.000 srgb} bind def
/col3 {0.000 1.000 1.000 srgb} bind def
/col4 {1.000 0.000 0.000 srgb} bind def
/col5 {1.000 0.000 1.000 srgb} bind def
/col6 {1.000 1.000 0.000 srgb} bind def
/col7 {1.000 1.000 1.000 srgb} bind def
/col8 {0.000 0.000 0.560 srgb} bind def
/col9 {0.000 0.000 0.690 srgb} bind def
/col10 {0.000 0.000 0.820 srgb} bind def
/col11 {0.530 0.810 1.000 srgb} bind def
/col12 {0.000 0.560 0.000 srgb} bind def
/col13 {0.000 0.690 0.000 srgb} bind def
/col14 {0.000 0.820 0.000 srgb} bind def
/col15 {0.000 0.560 0.560 srgb} bind def
/col16 {0.000 0.690 0.690 srgb} bind def
/col17 {0.000 0.820 0.820 srgb} bind def
/col18 {0.560 0.000 0.000 srgb} bind def
/col19 {0.690 0.000 0.000 srgb} bind def
/col20 {0.820 0.000 0.000 srgb} bind def
/col21 {0.560 0.000 0.560 srgb} bind def
/col22 {0.690 0.000 0.690 srgb} bind def
/col23 {0.820 0.000 0.820 srgb} bind def
/col24 {0.500 0.190 0.000 srgb} bind def
/col25 {0.630 0.250 0.000 srgb} bind def
/col26 {0.750 0.380 0.000 srgb} bind def
/col27 {1.000 0.500 0.500 srgb} bind def
/col28 {1.000 0.630 0.630 srgb} bind def
/col29 {1.000 0.750 0.750 srgb} bind def
/col30 {1.000 0.880 0.880 srgb} bind def
/col31 {1.000 0.840 0.000 srgb} bind def

end
save
newpath 0 298 moveto 0 0 lineto 237 0 lineto 237 298 lineto closepath clip newpath
-44.0 328.0 translate
1 -1 scale

/cp {closepath} bind def
/ef {eofill} bind def
/gr {grestore} bind def
/gs {gsave} bind def
/sa {save} bind def
/rs {restore} bind def
/l {lineto} bind def
/m {moveto} bind def
/rm {rmoveto} bind def
/n {newpath} bind def
/s {stroke} bind def
/sh {show} bind def
/slc {setlinecap} bind def
/slj {setlinejoin} bind def
/slw {setlinewidth} bind def
/srgb {setrgbcolor} bind def
/rot {rotate} bind def
/sc {scale} bind def
/sd {setdash} bind def
/ff {findfont} bind def
/sf {setfont} bind def
/scf {scalefont} bind def
/sw {stringwidth} bind def
/tr {translate} bind def
/tnt {dup dup currentrgbcolor
  4 -2 roll dup 1 exch sub 3 -1 roll mul add
  4 -2 roll dup 1 exch sub 3 -1 roll mul add
  4 -2 roll dup 1 exch sub 3 -1 roll mul add srgb}
  bind def
/shd {dup dup currentrgbcolor 4 -2 roll mul 4 -2 roll mul
  4 -2 roll mul srgb} bind def
/$F2psBegin {$F2psDict begin /$F2psEnteredState save def} def
/$F2psEnd {$F2psEnteredState restore end} def

$F2psBegin
%%Page: 1 1
10 setmiterlimit
 0.06000 0.06000 sc
% Polyline
7.500 slw
n 2025 750 m 2025 525 l 2550 525 l
 2550 750 l gs col0 s gr 
% Polyline
n 2025 525 m 1950 525 l
 2025 525 l  cp gs col0 s gr 
% Polyline
n 2550 525 m 2775 525 l
 2700 525 l gs col0 s gr 
% Polyline
n 1500 4575 m
 3300 3750 l gs col0 s gr 
% Polyline
n 1500 3750 m
 1500 4575 l gs col0 s gr 
% Polyline
n 3374 4578 m
 1574 3753 l gs col0 s gr 
% Polyline
n 3300 3750 m
 3300 4575 l gs col0 s gr 
% Polyline
n 2325 1050 m
 2325 1725 l gs col0 s gr 
% Polyline
n 2400 2775 m
 2400 3750 l gs col0 s gr 
% Polyline
n 1725 4725 m
 1350 5175 l gs col0 s gr 
% Polyline
n 3450 4725 m
 3825 5175 l gs col0 s gr 
% Polyline
n 2146 1869 m 2144 1868 l 2139 1867 l 2131 1865 l 2120 1862 l 2106 1858 l
 2090 1855 l 2072 1852 l 2052 1850 l 2031 1850 l 2008 1851 l
 1982 1854 l 1953 1860 l 1921 1869 l 1893 1879 l 1868 1890 l
 1847 1900 l 1830 1909 l 1816 1916 l 1806 1922 l 1797 1927 l
 1790 1932 l 1783 1936 l 1775 1942 l 1766 1949 l 1755 1958 l
 1742 1970 l 1727 1984 l 1711 2001 l 1696 2019 l 1684 2037 l
 1675 2054 l 1669 2068 l 1665 2078 l 1664 2087 l 1663 2092 l
 1664 2097 l 1665 2100 l 1666 2104 l 1668 2108 l 1670 2113 l
 1673 2120 l 1677 2130 l 1681 2141 l 1688 2155 l 1696 2169 l
 1708 2184 l 1720 2197 l 1731 2206 l 1740 2213 l 1747 2219 l
 1753 2222 l 1759 2225 l 1764 2228 l 1771 2230 l 1780 2233 l
 1791 2237 l 1806 2240 l 1825 2243 l 1846 2244 l 1867 2243 l
 1886 2240 l 1902 2237 l 1914 2233 l 1924 2230 l 1933 2228 l
 1940 2225 l 1947 2222 l 1954 2219 l 1961 2213 l 1970 2206 l
 1980 2197 l 1989 2184 l 1996 2169 l 1999 2153 l 1999 2137 l
 1998 2124 l 1995 2114 l 1991 2106 l 1987 2100 l 1983 2094 l
 1979 2088 l 1974 2082 l 1967 2074 l 1959 2064 l 1949 2051 l
 1936 2035 l 1921 2019 l 1902 2002 l 1883 1987 l 1865 1976 l
 1847 1968 l 1831 1961 l 1816 1956 l 1801 1951 l 1789 1948 l
 1780 1946 l 1774 1945 l
 1771 1944 l gs col0 s gr 
/Times-Roman ff 180.00 scf sf
750 5400 m
gs 1 -1 sc (Communes) col0 sh gr
/Times-Roman ff 180.00 scf sf
3675 5400 m
gs 1 -1 sc (Departements) col0 sh gr
/Times-Roman ff 180.00 scf sf
2700 900 m
gs 1 -1 sc (.Departements.nom) col0 sh gr
/Times-Roman ff 180.00 scf sf
1950 4650 m
gs 1 -1 sc (#dept=num) col0 sh gr
/Times-Roman ff 180.00 scf sf
2100 2475 m
gs 1 -1 sc (Nbhab>1,000,000) col0 sh gr
$F2psEnd
rs
