%!PS-Adobe-2.0 EPSF-2.0
%%Title: /home/philippe/BD/FIGURES/plsql.fig
%%Creator: fig2dev Version 3.2 Patchlevel 5-alpha5
%%CreationDate: Fri Jul  9 11:20:45 2004
%%For: philippe@pc (Philippe Rigaux)
%%BoundingBox: 0 0 407 159
%Magnification: 1.0000
%%EndComments
/$F2psDict 200 dict def
$F2psDict begin
$F2psDict /mtrx matrix put
/col-1 {0 setgray} bind def
/col0 {0.000 0.000 0.000 srgb} bind def
/col1 {0.000 0.000 1.000 srgb} bind def
/col2 {0.000 1.000 0.000 srgb} bind def
/col3 {0.000 1.000 1.000 srgb} bind def
/col4 {1.000 0.000 0.000 srgb} bind def
/col5 {1.000 0.000 1.000 srgb} bind def
/col6 {1.000 1.000 0.000 srgb} bind def
/col7 {1.000 1.000 1.000 srgb} bind def
/col8 {0.000 0.000 0.560 srgb} bind def
/col9 {0.000 0.000 0.690 srgb} bind def
/col10 {0.000 0.000 0.820 srgb} bind def
/col11 {0.530 0.810 1.000 srgb} bind def
/col12 {0.000 0.560 0.000 srgb} bind def
/col13 {0.000 0.690 0.000 srgb} bind def
/col14 {0.000 0.820 0.000 srgb} bind def
/col15 {0.000 0.560 0.560 srgb} bind def
/col16 {0.000 0.690 0.690 srgb} bind def
/col17 {0.000 0.820 0.820 srgb} bind def
/col18 {0.560 0.000 0.000 srgb} bind def
/col19 {0.690 0.000 0.000 srgb} bind def
/col20 {0.820 0.000 0.000 srgb} bind def
/col21 {0.560 0.000 0.560 srgb} bind def
/col22 {0.690 0.000 0.690 srgb} bind def
/col23 {0.820 0.000 0.820 srgb} bind def
/col24 {0.500 0.190 0.000 srgb} bind def
/col25 {0.630 0.250 0.000 srgb} bind def
/col26 {0.750 0.380 0.000 srgb} bind def
/col27 {1.000 0.500 0.500 srgb} bind def
/col28 {1.000 0.630 0.630 srgb} bind def
/col29 {1.000 0.750 0.750 srgb} bind def
/col30 {1.000 0.880 0.880 srgb} bind def
/col31 {1.000 0.840 0.000 srgb} bind def

end
save
newpath 0 159 moveto 0 0 lineto 407 0 lineto 407 159 lineto closepath clip newpath
-84.8 284.2 translate
1 -1 scale

/cp {closepath} bind def
/ef {eofill} bind def
/gr {grestore} bind def
/gs {gsave} bind def
/sa {save} bind def
/rs {restore} bind def
/l {lineto} bind def
/m {moveto} bind def
/rm {rmoveto} bind def
/n {newpath} bind def
/s {stroke} bind def
/sh {show} bind def
/slc {setlinecap} bind def
/slj {setlinejoin} bind def
/slw {setlinewidth} bind def
/srgb {setrgbcolor} bind def
/rot {rotate} bind def
/sc {scale} bind def
/sd {setdash} bind def
/ff {findfont} bind def
/sf {setfont} bind def
/scf {scalefont} bind def
/sw {stringwidth} bind def
/tr {translate} bind def
/tnt {dup dup currentrgbcolor
  4 -2 roll dup 1 exch sub 3 -1 roll mul add
  4 -2 roll dup 1 exch sub 3 -1 roll mul add
  4 -2 roll dup 1 exch sub 3 -1 roll mul add srgb}
  bind def
/shd {dup dup currentrgbcolor 4 -2 roll mul 4 -2 roll mul
  4 -2 roll mul srgb} bind def
/reencdict 12 dict def /ReEncode { reencdict begin
/newcodesandnames exch def /newfontname exch def /basefontname exch def
/basefontdict basefontname findfont def /newfont basefontdict maxlength dict def
basefontdict { exch dup /FID ne { dup /Encoding eq
{ exch dup length array copy newfont 3 1 roll put }
{ exch newfont 3 1 roll put } ifelse } { pop pop } ifelse } forall
newfont /FontName newfontname put newcodesandnames aload pop
128 1 255 { newfont /Encoding get exch /.notdef put } for
newcodesandnames length 2 idiv { newfont /Encoding get 3 1 roll put } repeat
newfontname newfont definefont pop end } def
/isovec [
8#055 /minus 8#200 /grave 8#201 /acute 8#202 /circumflex 8#203 /tilde
8#204 /macron 8#205 /breve 8#206 /dotaccent 8#207 /dieresis
8#210 /ring 8#211 /cedilla 8#212 /hungarumlaut 8#213 /ogonek 8#214 /caron
8#220 /dotlessi 8#230 /oe 8#231 /OE
8#240 /space 8#241 /exclamdown 8#242 /cent 8#243 /sterling
8#244 /currency 8#245 /yen 8#246 /brokenbar 8#247 /section 8#250 /dieresis
8#251 /copyright 8#252 /ordfeminine 8#253 /guillemotleft 8#254 /logicalnot
8#255 /hyphen 8#256 /registered 8#257 /macron 8#260 /degree 8#261 /plusminus
8#262 /twosuperior 8#263 /threesuperior 8#264 /acute 8#265 /mu 8#266 /paragraph
8#267 /periodcentered 8#270 /cedilla 8#271 /onesuperior 8#272 /ordmasculine
8#273 /guillemotright 8#274 /onequarter 8#275 /onehalf
8#276 /threequarters 8#277 /questiondown 8#300 /Agrave 8#301 /Aacute
8#302 /Acircumflex 8#303 /Atilde 8#304 /Adieresis 8#305 /Aring
8#306 /AE 8#307 /Ccedilla 8#310 /Egrave 8#311 /Eacute
8#312 /Ecircumflex 8#313 /Edieresis 8#314 /Igrave 8#315 /Iacute
8#316 /Icircumflex 8#317 /Idieresis 8#320 /Eth 8#321 /Ntilde 8#322 /Ograve
8#323 /Oacute 8#324 /Ocircumflex 8#325 /Otilde 8#326 /Odieresis 8#327 /multiply
8#330 /Oslash 8#331 /Ugrave 8#332 /Uacute 8#333 /Ucircumflex
8#334 /Udieresis 8#335 /Yacute 8#336 /Thorn 8#337 /germandbls 8#340 /agrave
8#341 /aacute 8#342 /acircumflex 8#343 /atilde 8#344 /adieresis 8#345 /aring
8#346 /ae 8#347 /ccedilla 8#350 /egrave 8#351 /eacute
8#352 /ecircumflex 8#353 /edieresis 8#354 /igrave 8#355 /iacute
8#356 /icircumflex 8#357 /idieresis 8#360 /eth 8#361 /ntilde 8#362 /ograve
8#363 /oacute 8#364 /ocircumflex 8#365 /otilde 8#366 /odieresis 8#367 /divide
8#370 /oslash 8#371 /ugrave 8#372 /uacute 8#373 /ucircumflex
8#374 /udieresis 8#375 /yacute 8#376 /thorn 8#377 /ydieresis] def
/Times-Roman /Times-Roman-iso isovec ReEncode
/Times-Bold /Times-Bold-iso isovec ReEncode
 /DrawEllipse {
	/endangle exch def
	/startangle exch def
	/yrad exch def
	/xrad exch def
	/y exch def
	/x exch def
	/savematrix mtrx currentmatrix def
	x y tr xrad yrad sc 0 0 1 startangle endangle arc
	closepath
	savematrix setmatrix
	} def

/$F2psBegin {$F2psDict begin /$F2psEnteredState save def} def
/$F2psEnd {$F2psEnteredState restore end} def

$F2psBegin
10 setmiterlimit
0 slj 0 slc
 0.06000 0.06000 sc
%
% Fig objects follow
%
% 
% here starts figure with depth 50
% Polyline
0 slj
0 slc
7.500 slw
n 7275 3675 m
 7275 4275 l gs col0 s gr 
% Polyline
n 8175 3675 m
 8175 4275 l gs col0 s gr 
% Polyline
n 3525 3675 m
 3525 4275 l gs col0 s gr 
% Polyline
n 4425 3675 m
 4425 4275 l gs col0 s gr 
% Arc
gs  clippath
7929 3587 m 7774 3653 l 7797 3708 l 7952 3643 l 7952 3643 l 7830 3662 l 7929 3587 l cp
eoclip
n 7762.5 3412.5 265.2 -98.1301 81.8699 arc
gs col0 s gr
 gr

% arrowhead
n 7929 3587 m 7830 3662 l 7952 3643 l 7929 3587 l  cp gs 0.00 setgray ef gr  col0 s
% Arc
gs  clippath
7502 3198 m 7668 3178 l 7661 3118 l 7495 3138 l 7495 3138 l 7618 3154 l 7502 3198 l cp
eoclip
n 7612.5 3412.5 265.2 81.8699 -81.8699 arc
gs col0 s gr
 gr

% arrowhead
n 7502 3198 m 7618 3154 l 7495 3138 l 7502 3198 l  cp gs 0.00 setgray ef gr  col0 s
% Arc
gs  clippath
4179 3587 m 4024 3653 l 4047 3708 l 4202 3643 l 4202 3643 l 4080 3662 l 4179 3587 l cp
eoclip
n 4012.5 3412.5 265.2 -98.1301 81.8699 arc
gs col0 s gr
 gr

% arrowhead
n 4179 3587 m 4080 3662 l 4202 3643 l 4179 3587 l  cp gs 0.00 setgray ef gr  col0 s
% Arc
gs  clippath
3752 3198 m 3918 3178 l 3911 3118 l 3745 3138 l 3745 3138 l 3868 3154 l 3752 3198 l cp
eoclip
n 3862.5 3412.5 265.2 81.8699 -81.8699 arc
gs col0 s gr
 gr

% arrowhead
n 3752 3198 m 3868 3154 l 3745 3138 l 3752 3198 l  cp gs 0.00 setgray ef gr  col0 s
% Arc
gs  clippath
3335 2671 m 3435 2805 l 3483 2769 l 3383 2635 l 3383 2635 l 3431 2749 l 3335 2671 l cp
eoclip
n 2925.0 3084.4 609.4 -149.4898 -30.5102 arc
gs col0 s gr
 gr

% arrowhead
n 3335 2671 m 3431 2749 l 3383 2635 l 3335 2671 l  cp gs 0.00 setgray ef gr  col0 s
% Arc
gs  clippath
2515 2879 m 2415 2745 l 2367 2781 l 2467 2915 l 2467 2915 l 2419 2801 l 2515 2879 l cp
eoclip
n 2925.0 2465.6 609.4 30.5102 149.4898 arc
gs col0 s gr
 gr

% arrowhead
n 2515 2879 m 2419 2801 l 2467 2915 l 2515 2879 l  cp gs 0.00 setgray ef gr  col0 s
% Polyline
n 1530 2400 m 1425 2400 1425 3120 105 arcto 4 {pop} repeat
  1425 3225 2295 3225 105 arcto 4 {pop} repeat
  2400 3225 2400 2505 105 arcto 4 {pop} repeat
  2400 2400 1530 2400 105 arcto 4 {pop} repeat
 cp gs col0 s gr 
% Polyline
n 3555 2400 m 3450 2400 3450 3045 105 arcto 4 {pop} repeat
  3450 3150 4245 3150 105 arcto 4 {pop} repeat
  4350 3150 4350 2505 105 arcto 4 {pop} repeat
  4350 2400 3555 2400 105 arcto 4 {pop} repeat
 cp gs col0 s gr 
% Polyline
n 4800 2100 m
 4800 4725 l gs col0 s gr 
% Polyline
n 5130 2400 m 5025 2400 5025 3120 105 arcto 4 {pop} repeat
  5025 3225 5895 3225 105 arcto 4 {pop} repeat
  6000 3225 6000 2505 105 arcto 4 {pop} repeat
  6000 2400 5130 2400 105 arcto 4 {pop} repeat
 cp gs col0 s gr 
% Polyline
n 7305 2400 m 7200 2400 7200 3045 105 arcto 4 {pop} repeat
  7200 3150 7995 3150 105 arcto 4 {pop} repeat
  8100 3150 8100 2505 105 arcto 4 {pop} repeat
  8100 2400 7305 2400 105 arcto 4 {pop} repeat
 cp gs col0 s gr 
% Polyline
gs  clippath
7048 2730 m 7215 2730 l 7215 2670 l 7048 2670 l 7048 2670 l 7168 2700 l 7048 2730 l cp
eoclip
n 6000 2700 m
 7200 2700 l gs col0 s gr gr

% arrowhead
n 7048 2730 m 7168 2700 l 7048 2670 l 7048 2730 l  cp gs 0.00 setgray ef gr  col0 s
/Times-Roman-iso ff 166.67 scf sf
1500 4650 m
gs 1 -1 sc (Communications avec un programme externe) col0 sh gr
/Times-Roman-iso ff 166.67 scf sf
7650 4050 m
gs 1 -1 sc (BD) col0 sh gr
/Times-Roman-iso ff 166.67 scf sf
7500 3450 m
gs 1 -1 sc (Acc\350s) col0 sh gr
/Times-Roman-iso ff 166.67 scf sf
2625 2400 m
gs 1 -1 sc (Requ\352tes) col0 sh gr
/Times-Roman-iso ff 166.67 scf sf
2625 3300 m
gs 1 -1 sc (R\351sultats) col0 sh gr
/Times-Roman-iso ff 166.67 scf sf
3750 3450 m
gs 1 -1 sc (Acc\350s) col0 sh gr
/Times-Roman-iso ff 166.67 scf sf
1500 2700 m
gs 1 -1 sc (Connexion +) col0 sh gr
/Times-Roman-iso ff 166.67 scf sf
1575 2925 m
gs 1 -1 sc (succession) col0 sh gr
/Times-Roman-iso ff 166.67 scf sf
1500 3150 m
gs 1 -1 sc (d'ordres SQL) col0 sh gr
/Times-Roman-iso ff 166.67 scf sf
3600 2700 m
gs 1 -1 sc (analyse +) col0 sh gr
/Times-Roman-iso ff 166.67 scf sf
3525 2925 m
gs 1 -1 sc (compilation) col0 sh gr
/Times-Roman-iso ff 166.67 scf sf
5175 4650 m
gs 1 -1 sc (Communications avec une proc\351dure stock\351e) col0 sh gr
/Times-Roman-iso ff 166.67 scf sf
5100 2700 m
gs 1 -1 sc (Connexion +) col0 sh gr
/Times-Roman-iso ff 166.67 scf sf
5100 2925 m
gs 1 -1 sc (appel) col0 sh gr
/Times-Roman-iso ff 166.67 scf sf
5100 3150 m
gs 1 -1 sc (proc\351dure) col0 sh gr
/Times-Bold-iso ff 166.67 scf sf
1725 2325 m
gs 1 -1 sc (Client) col10 sh gr
/Times-Bold-iso ff 166.67 scf sf
3675 2325 m
gs 1 -1 sc (Serveur) col10 sh gr
/Times-Bold-iso ff 166.67 scf sf
5250 2325 m
gs 1 -1 sc (Client) col10 sh gr
/Times-Bold-iso ff 166.67 scf sf
7425 2325 m
gs 1 -1 sc (Serveur) col10 sh gr
/Times-Bold-iso ff 166.67 scf sf
2700 2850 m
gs 1 -1 sc (R\351seau) col10 sh gr
/Times-Bold-iso ff 166.67 scf sf
3900 4050 m
gs 1 -1 sc (BD) col10 sh gr
/Times-Roman-iso ff 166.67 scf sf
7350 3000 m
gs 1 -1 sc (  stock\351e) col0 sh gr
/Times-Roman-iso ff 166.67 scf sf
7425 2775 m
gs 1 -1 sc (proc\351dure) col0 sh gr
/Times-Roman-iso ff 166.67 scf sf
6375 2625 m
gs 1 -1 sc (Appel) col0 sh gr
/Times-Bold-iso ff 166.67 scf sf
6375 3000 m
gs 1 -1 sc (R\351seau) col10 sh gr
% here ends figure;
% 
% here starts figure with depth 0
% Ellipse
7.500 slw
n 7725 3675 449 74 0 360 DrawEllipse gs col-1 s gr

% Ellipse
n 7725 4275 449 74 0 360 DrawEllipse gs col-1 s gr

% Ellipse
n 3975 3675 449 74 0 360 DrawEllipse gs col-1 s gr

% Ellipse
n 3975 4275 449 74 0 360 DrawEllipse gs col-1 s gr

% here ends figure;
$F2psEnd
rs
showpage
%%Trailer
%EOF
