%!PS-Adobe-2.0 EPSF-2.0
%%Title: 5.rt1.eps
%%Creator: fig2dev Version 3.2 Patchlevel 0-beta3
%%CreationDate: Thu Dec  2 13:28:11 1999
%%For: rigaux@vespucci (Philippe Rigaux)
%%Orientation: Portrait
%%BoundingBox: 0 0 340 129
%%Pages: 0
%%BeginSetup
%%EndSetup
%%Magnification: 1.0000
%%EndComments
/$F2psDict 200 dict def
$F2psDict begin
$F2psDict /mtrx matrix put
/col-1 {0 setgray} bind def
/col0 {0.000 0.000 0.000 srgb} bind def
/col1 {0.000 0.000 1.000 srgb} bind def
/col2 {0.000 1.000 0.000 srgb} bind def
/col3 {0.000 1.000 1.000 srgb} bind def
/col4 {1.000 0.000 0.000 srgb} bind def
/col5 {1.000 0.000 1.000 srgb} bind def
/col6 {1.000 1.000 0.000 srgb} bind def
/col7 {1.000 1.000 1.000 srgb} bind def
/col8 {0.000 0.000 0.560 srgb} bind def
/col9 {0.000 0.000 0.690 srgb} bind def
/col10 {0.000 0.000 0.820 srgb} bind def
/col11 {0.530 0.810 1.000 srgb} bind def
/col12 {0.000 0.560 0.000 srgb} bind def
/col13 {0.000 0.690 0.000 srgb} bind def
/col14 {0.000 0.820 0.000 srgb} bind def
/col15 {0.000 0.560 0.560 srgb} bind def
/col16 {0.000 0.690 0.690 srgb} bind def
/col17 {0.000 0.820 0.820 srgb} bind def
/col18 {0.560 0.000 0.000 srgb} bind def
/col19 {0.690 0.000 0.000 srgb} bind def
/col20 {0.820 0.000 0.000 srgb} bind def
/col21 {0.560 0.000 0.560 srgb} bind def
/col22 {0.690 0.000 0.690 srgb} bind def
/col23 {0.820 0.000 0.820 srgb} bind def
/col24 {0.500 0.190 0.000 srgb} bind def
/col25 {0.630 0.250 0.000 srgb} bind def
/col26 {0.750 0.380 0.000 srgb} bind def
/col27 {1.000 0.500 0.500 srgb} bind def
/col28 {1.000 0.630 0.630 srgb} bind def
/col29 {1.000 0.750 0.750 srgb} bind def
/col30 {1.000 0.880 0.880 srgb} bind def
/col31 {1.000 0.840 0.000 srgb} bind def

end
save
-29.0 165.0 translate
1 -1 scale

/cp {closepath} bind def
/ef {eofill} bind def
/gr {grestore} bind def
/gs {gsave} bind def
/sa {save} bind def
/rs {restore} bind def
/l {lineto} bind def
/m {moveto} bind def
/rm {rmoveto} bind def
/n {newpath} bind def
/s {stroke} bind def
/sh {show} bind def
/slc {setlinecap} bind def
/slj {setlinejoin} bind def
/slw {setlinewidth} bind def
/srgb {setrgbcolor} bind def
/rot {rotate} bind def
/sc {scale} bind def
/sd {setdash} bind def
/ff {findfont} bind def
/sf {setfont} bind def
/scf {scalefont} bind def
/sw {stringwidth} bind def
/tr {translate} bind def
/tnt {dup dup currentrgbcolor
  4 -2 roll dup 1 exch sub 3 -1 roll mul add
  4 -2 roll dup 1 exch sub 3 -1 roll mul add
  4 -2 roll dup 1 exch sub 3 -1 roll mul add srgb}
  bind def
/shd {dup dup currentrgbcolor 4 -2 roll mul 4 -2 roll mul
  4 -2 roll mul srgb} bind def
 /DrawEllipse {
	/endangle exch def
	/startangle exch def
	/yrad exch def
	/xrad exch def
	/y exch def
	/x exch def
	/savematrix mtrx currentmatrix def
	x y tr xrad yrad sc 0 0 1 startangle endangle arc
	closepath
	savematrix setmatrix
	} def

/$F2psBegin {$F2psDict begin /$F2psEnteredState save def} def
/$F2psEnd {$F2psEnteredState restore end} def
%%EndProlog

$F2psBegin
10 setmiterlimit
n -1000 3749 m -1000 -1000 l 7148 -1000 l 7148 3749 l cp clip
 0.06000 0.06000 sc
% Polyline
7.500 slw
n 2082 2109 m 2082 1966 l 1701 1966 l 1701 2109 l cp gs col7 0.50 shd ef gr gs col0 s gr 
% Polyline
n 2462 1680 m 2462 1395 l 2272 1395 l 2272 1680 l cp gs col7 0.50 shd ef gr gs col0 s gr 
% Polyline
n 2272 919 m 2272 680 l 1939 680 l 1939 919 l cp gs col7 0.50 shd ef gr gs col0 s gr 
% Polyline
n 1891 1585 m 1891 824 l 1654 824 l 1654 1585 l cp gs col7 0.50 shd ef gr gs col0 s gr 
% Polyline
n 1462 2490 m 1462 2300 l 1081 2300 l 1081 2490 l cp gs col7 0.50 shd ef gr gs col0 s gr 
% Polyline
n 891 2680 m 891 2537 l 605 2537 l 605 2680 l cp gs col7 0.50 shd ef gr gs col0 s gr 
% Polyline
n 2367 1443 m 2367 1251 l 1749 1251 l 1749 1443 l cp gs col7 0.50 shd ef gr gs col0 s gr 
% Polyline
n 844 1680 m 844 1538 l 558 1538 l 558 1680 l cp gs col7 0.50 shd ef gr gs col0 s gr 
% Polyline
n 1559 1014 m 1559 776 l 1320 776 l 1320 1014 l cp gs col7 0.50 shd ef gr gs col0 s gr 
% Polyline
n 1130 1490 m 1130 1014 l 986 1014 l 986 1490 l cp gs col7 0.50 shd ef gr gs col0 s gr 
% Polyline
n 939 1156 m 939 1014 l 654 1014 l 654 1156 l cp gs col7 0.50 shd ef gr gs col0 s gr 
% Polyline
n 1225 871 m 1225 728 l 844 728 l 844 871 l cp gs col7 0.50 shd ef gr gs col0 s gr 
% Polyline
n 796 871 m 796 680 l 605 680 l 605 871 l cp gs col7 0.50 shd ef gr gs col0 s gr 
% Polyline
n 2130 1871 m 2130 1680 l 1749 1680 l 1749 1871 l cp gs col7 0.50 shd ef gr gs col0 s gr 
/Times-Roman ff 120.00 scf sf
4875 2100 m
gs 1 -1 sc ([8,9,14]) col0 sh gr
/Times-Roman ff 120.00 scf sf
654 2632 m
gs 1 -1 sc (4) col0 sh gr
/Times-Roman ff 120.00 scf sf
1130 2442 m
gs 1 -1 sc (7) col0 sh gr
/Times-Roman ff 120.00 scf sf
3300 2100 m
gs 1 -1 sc ([1,2,5,6]) col0 sh gr
/Times-Roman ff 120.00 scf sf
5625 2100 m
gs 1 -1 sc ([11,12,13]) col0 sh gr
/Times-Roman ff 120.00 scf sf
4050 2100 m
gs 1 -1 sc ([3,4,7,10]) col0 sh gr
% Polyline
n 4575 1335 m 4215 1755 l gs col-1 s gr 
% Polyline
n 4710 1270 m 5895 1747 l gs col-1 s gr 
% Polyline
 [15 15] 15 sd
n 1225 1490 m 605 1490 l 605 680 l 1225 680 l cp gs col0 s gr  [] 0 sd
% Polyline
 [15 15] 15 sd
n 2082 2680 m 558 2680 l 558 1538 l 2082 1538 l cp gs col0 s gr  [] 0 sd
% Polyline
 [15 15] 15 sd
n 2130 1871 m 1320 1871 l 1320 776 l 2130 776 l cp gs col0 s gr  [] 0 sd
% Polyline
n 4525 1275 m 3487 1762 l gs col-1 s gr 
% Polyline
n 4679 1334 m 5025 1747 l gs col-1 s gr 
% Ellipse
n 5917 1810 66 66 0 360 DrawEllipse gs col-1 s gr

% Ellipse
n 5013 1810 66 66 0 360 DrawEllipse gs col-1 s gr

% Ellipse
n 4203 1810 66 66 0 360 DrawEllipse gs col-1 s gr

/Times-Roman ff 120.00 scf sf
1986 871 m
gs 1 -1 sc (11) col-1 sh gr
% Polyline
15.000 slw
n 2511 2727 m 2511 633 l 510 633 l 510 2727 l cp gs col-1 s gr 
7.500 slw
% Ellipse
n 4613 1268 88 88 0 360 DrawEllipse gs col-1 s gr

/Times-Roman ff 120.00 scf sf
2320 1585 m
gs 1 -1 sc (13) col-1 sh gr
/Times-Roman ff 120.00 scf sf
1034 1300 m
gs 1 -1 sc (6) col-1 sh gr
/Times-Roman ff 120.00 scf sf
1796 1109 m
gs 1 -1 sc (8) col-1 sh gr
/Times-Roman ff 120.00 scf sf
986 824 m
gs 1 -1 sc (5) col-1 sh gr
/Times-Roman ff 120.00 scf sf
1796 2061 m
gs 1 -1 sc (10) col-1 sh gr
/Times-Roman ff 120.00 scf sf
654 1633 m
gs 1 -1 sc (3) col-1 sh gr
/Times-Roman ff 120.00 scf sf
749 1109 m
gs 1 -1 sc (2) col-1 sh gr
/Times-Italic ff 150.00 scf sf
1950 2550 m
gs 1 -1 sc (b) col-1 sh gr
/Times-Italic ff 150.00 scf sf
2325 1050 m
gs 1 -1 sc (d) col-1 sh gr
/Times-Italic ff 150.00 scf sf
1425 1275 m
gs 1 -1 sc (c) col-1 sh gr
/Times-Italic ff 150.00 scf sf
675 1425 m
gs 1 -1 sc (a) col-1 sh gr
/Times-Italic ff 150.00 scf sf
2625 2400 m
gs 1 -1 sc (R) col-1 sh gr
/Times-Roman ff 120.00 scf sf
1939 1395 m
gs 1 -1 sc (12) col-1 sh gr
/Times-Roman ff 120.00 scf sf
1796 1824 m
gs 1 -1 sc (9) col-1 sh gr
/Times-Italic ff 150.00 scf sf
4537 1049 m
gs 1 -1 sc (R) col-1 sh gr
% Polyline
 [15 15] 15 sd
n 1749 1680 m 2462 1680 l 2462 680 l 1749 680 l cp gs col0 s gr  [] 0 sd
/Times-Roman ff 120.00 scf sf
1367 919 m
gs 1 -1 sc (14) col-1 sh gr
% Ellipse
n 3442 1810 66 66 0 360 DrawEllipse gs col-1 s gr

/Times-Roman ff 120.00 scf sf
654 824 m
gs 1 -1 sc (1) col-1 sh gr
/Times-Italic ff 150.00 scf sf
5700 1875 m
gs 1 -1 sc (d) col-1 sh gr
/Times-Italic ff 150.00 scf sf
4800 1875 m
gs 1 -1 sc (c) col-1 sh gr
/Times-Italic ff 150.00 scf sf
3975 1875 m
gs 1 -1 sc (b) col-1 sh gr
/Times-Italic ff 150.00 scf sf
3225 1875 m
gs 1 -1 sc (a) col-1 sh gr
$F2psEnd
rs
