#FIG 3.1
Portrait
Center
Inches
1200 2
6 202 945 1430 1957
2 2 0 1 -1 7 0 0 -1 0.000 0 0 0 0 0 5
	 202 945 1026 945 1026 1957 202 1957 202 945
2 1 0 1 -1 7 0 0 -1 0.000 0 0 -1 0 0 2
	 204 1281 1029 1281
4 0 -1 0 0 1 10 0.0000000 4 105 570 305 1172 ARTISTE\001
4 0 -1 0 0 1 10 0.0000000 4 105 120 352 1467 Id\001
4 0 -1 0 0 1 10 0.0000000 4 105 285 352 1683 Nom\001
4 0 -1 0 0 1 10 0.0000000 4 105 465 352 1899 Prenom\001
-6
6 4350 855 5280 1905
2 1 0 1 -1 7 0 0 -1 0.000 0 0 -1 0 0 2
	 4353 1156 5178 1156
2 2 0 1 -1 7 0 0 -1 0.000 0 0 0 0 0 5
	 4350 858 5175 858 5175 1905 4350 1905 4350 858
4 0 -1 0 0 1 10 0.0000000 4 105 345 4575 1080 FILM\001
4 0 -1 0 0 1 10 0.0000000 4 105 120 4501 1381 Id\001
4 0 -1 0 0 1 10 0.0000000 4 105 300 4501 1606 Titre\001
4 0 -1 0 0 1 10 0.0000000 4 105 360 4501 1822 Annee\001
-6
6 2407 1207 3307 1732
1 2 0 1 -1 7 0 0 -1 0.0000000 1 0.000 2857 1507 450 225 2407 1282 3307 1732
2 1 0 1 -1 7 0 0 -1 0.000 0 0 -1 0 0 2
	 2407 1507 3307 1507
4 0 -1 0 0 1 10 0.0000000 4 105 270 2707 1432 Joue\001
4 0 -1 0 0 1 10 0.0000000 4 105 270 2707 1657 Role\001
-6
2 1 0 1 -1 7 0 0 -1 0.000 0 0 -1 0 0 2
	 2415 1560 1020 1560
2 1 0 1 -1 7 0 0 -1 0.000 0 0 -1 0 0 2
	 3300 1567 4350 1560
2 2 0 1 -1 7 0 0 -1 0.000 0 0 0 0 0 5
	 4388 2692 5393 2692 5393 3000 4388 3000 4388 2692
2 2 0 1 -1 7 0 0 -1 0.000 0 0 0 0 0 5
	 2362 2699 3367 2699 3367 3007 2362 3007 2362 2699
2 2 0 1 -1 7 0 0 -1 0.000 0 0 0 0 0 5
	 308 2692 1313 2692 1313 3000 308 3000 308 2692
2 1 0 1 -1 7 0 0 -1 0.000 0 0 -1 1 0 2
	0 0 1.00 60.00 120.00
	 1312 2850 2362 2850
2 1 0 1 -1 7 0 0 -1 0.000 0 0 -1 1 0 2
	0 0 1.00 60.00 120.00
	 4387 2842 3367 2850
4 0 -1 0 0 -1 10 0.0000000 4 120 195 1184 1448 0,n\001
4 0 -1 0 0 1 10 0.0000000 4 105 570 494 2895 ARTISTE\001
4 0 -1 0 0 1 10 0.0000000 4 105 375 2685 2894 ROLE\001
4 0 -1 0 0 1 10 0.0000000 4 105 345 4717 2902 FILM\001
4 0 -1 0 0 2 12 0.0000000 4 135 1095 2220 3465 Modele reseau\001
4 0 -1 0 0 2 12 0.0000000 4 180 1410 2070 892 Modele conceptuel\001
4 0 -1 0 0 -1 10 0.0000000 4 120 195 3975 1425 0,n\001
