\relax 
\providecommand*\new@tpo@label[2]{}
\catcode `:\active 
\catcode `;\active 
\catcode `!\active 
\catcode `?\active 
\select@language{french}
\@writefile{toc}{\select@language{french}}
\@writefile{lof}{\select@language{french}}
\@writefile{lot}{\select@language{french}}
\@writefile{toc}{\contentsline {section}{\numberline {1}Représentation de l'information}{1}}
\@writefile{toc}{\contentsline {subsection}{\numberline {1.1}Unités}{1}}
\@writefile{toc}{\contentsline {subsection}{\numberline {1.2}Représentation des nombres naturels}{2}}
\@writefile{toc}{\contentsline {subsection}{\numberline {1.3}Opérations sur la représentation binaire}{3}}
\@writefile{toc}{\contentsline {paragraph}{\nonumberline Opérations euclidiennes}{3}}
\@writefile{toc}{\contentsline {paragraph}{\nonumberline Opérations logiques}{3}}
\@writefile{toc}{\contentsline {paragraph}{\nonumberline Décalages, division et multiplications}{4}}
\@writefile{toc}{\contentsline {subsection}{\numberline {1.4}Représentation des nombres entiers}{5}}
\@writefile{toc}{\contentsline {subsection}{\numberline {1.5}Représentation des nombres <<~réels~>>}{6}}
\@writefile{toc}{\contentsline {paragraph}{\nonumberline IEEE754}{7}}
\@writefile{toc}{\contentsline {subsection}{\numberline {1.6}Représentation des caractères}{9}}
\@writefile{toc}{\contentsline {subsection}{\numberline {1.7}Représentation d'images}{9}}
\@writefile{toc}{\contentsline {section}{\numberline {2}Détection et correction d'erreurs}{10}}
\@writefile{toc}{\contentsline {paragraph}{\nonumberline Bit de parité}{10}}
\@writefile{toc}{\contentsline {paragraph}{\nonumberline Code de Hamming}{10}}
